Part 2/simulation/qsim/Lab6Part2.msim.vcd
$comment
	File created using the following command:
		vcd file Lab6Part2.msim.vcd -direction
$end
$date
	Thu Nov 22 17:27:40 2018
$end
$version
	ModelSim Version 10.1d
$end
$timescale
	1ps
$end
$scope module Lab6Part2_vlg_vec_tst $end
$var reg 8 ! A [7:0] $end
$var reg 8 " B [7:0] $end
$var reg 1 # Clock $end
$var reg 1 $ Latch $end
$var reg 1 % Reset $end
$var wire 1 & Cur [3] $end
$var wire 1 ' Cur [2] $end
$var wire 1 ( Cur [1] $end
$var wire 1 ) Cur [0] $end
$var wire 1 * HEX0 [0] $end
$var wire 1 + HEX0 [1] $end
$var wire 1 , HEX0 [2] $end
$var wire 1 - HEX0 [3] $end
$var wire 1 . HEX0 [4] $end
$var wire 1 / HEX0 [5] $end
$var wire 1 0 HEX0 [6] $end
$var wire 1 1 HEX1 [0] $end
$var wire 1 2 HEX1 [1] $end
$var wire 1 3 HEX1 [2] $end
$var wire 1 4 HEX1 [3] $end
$var wire 1 5 HEX1 [4] $end
$var wire 1 6 HEX1 [5] $end
$var wire 1 7 HEX1 [6] $end
$var wire 1 8 HEX2 [0] $end
$var wire 1 9 HEX2 [1] $end
$var wire 1 : HEX2 [2] $end
$var wire 1 ; HEX2 [3] $end
$var wire 1 < HEX2 [4] $end
$var wire 1 = HEX2 [5] $end
$var wire 1 > HEX2 [6] $end
$var wire 1 ? HEX3 [0] $end
$var wire 1 @ HEX3 [1] $end
$var wire 1 A HEX3 [2] $end
$var wire 1 B HEX3 [3] $end
$var wire 1 C HEX3 [4] $end
$var wire 1 D HEX3 [5] $end
$var wire 1 E HEX3 [6] $end
$var wire 1 F HEX4 [0] $end
$var wire 1 G HEX4 [1] $end
$var wire 1 H HEX4 [2] $end
$var wire 1 I HEX4 [3] $end
$var wire 1 J HEX4 [4] $end
$var wire 1 K HEX4 [5] $end
$var wire 1 L HEX4 [6] $end
$var wire 1 M HEX5 [0] $end
$var wire 1 N HEX5 [1] $end
$var wire 1 O HEX5 [2] $end
$var wire 1 P HEX5 [3] $end
$var wire 1 Q HEX5 [4] $end
$var wire 1 R HEX5 [5] $end
$var wire 1 S HEX5 [6] $end
$var wire 1 T sampler $end
$scope module i1 $end
$var wire 1 U gnd $end
$var wire 1 V vcc $end
$var wire 1 W unknown $end
$var tri1 1 X devclrn $end
$var tri1 1 Y devpor $end
$var tri1 1 Z devoe $end
$var wire 1 [ inst1|Add0~0_combout $end
$var wire 1 \ inst1|Add0~2_combout $end
$var wire 1 ] inst1|Add4~2_combout $end
$var wire 1 ^ inst1|Add0~4_combout $end
$var wire 1 _ inst1|Add4~4_combout $end
$var wire 1 ` inst1|Add3~8_combout $end
$var wire 1 a inst1|Add4~6_combout $end
$var wire 1 b inst1|Add2~10_combout $end
$var wire 1 c inst1|Add0~8_combout $end
$var wire 1 d inst1|Add0~10_combout $end
$var wire 1 e inst1|Add4~10_combout $end
$var wire 1 f inst1|Add3~14_combout $end
$var wire 1 g inst1|Add2~17 $end
$var wire 1 h inst1|Add2~18_combout $end
$var wire 1 i inst1|Add3~17 $end
$var wire 1 j inst1|Add3~18_combout $end
$var wire 1 k inst1|Selector11~2_combout $end
$var wire 1 l inst1|Selector11~3_combout $end
$var wire 1 m inst1|Selector11~4_combout $end
$var wire 1 n inst1|Selector8~4_combout $end
$var wire 1 o inst1|Selector8~5_combout $end
$var wire 1 p inst1|Selector10~0_combout $end
$var wire 1 q inst1|Selector10~1_combout $end
$var wire 1 r inst1|Selector10~2_combout $end
$var wire 1 s inst1|Selector9~2_combout $end
$var wire 1 t inst1|Selector9~3_combout $end
$var wire 1 u inst1|Selector9~4_combout $end
$var wire 1 v inst1|Selector8~6_combout $end
$var wire 1 w inst1|Selector8~7_combout $end
$var wire 1 x inst1|Selector7~0_combout $end
$var wire 1 y inst1|Selector6~8_combout $end
$var wire 1 z inst1|Selector4~2_combout $end
$var wire 1 { inst1|Selector5~2_combout $end
$var wire 1 | inst1|Selector5~3_combout $end
$var wire 1 } inst1|Selector5~4_combout $end
$var wire 1 ~ inst1|Selector4~4_combout $end
$var wire 1 !! inst1|Selector4~5_combout $end
$var wire 1 "! inst1|Selector9~10_combout $end
$var wire 1 #! Clock~combout $end
$var wire 1 $! Latch~combout $end
$var wire 1 %! Latch~clkctrl_outclk $end
$var wire 1 &! Clock~clk_delay_ctrl_clkout $end
$var wire 1 '! Clock~clkctrl_outclk $end
$var wire 1 (! inst2|yfsm.s0~0_combout $end
$var wire 1 )! Reset~combout $end
$var wire 1 *! inst2|yfsm.s0~regout $end
$var wire 1 +! inst2|yfsm.s1~0_combout $end
$var wire 1 ,! inst2|yfsm.s1~regout $end
$var wire 1 -! inst2|yfsm.s2~regout $end
$var wire 1 .! inst2|yfsm.s3~regout $end
$var wire 1 /! inst2|yfsm.s4~feeder_combout $end
$var wire 1 0! inst2|yfsm.s4~regout $end
$var wire 1 1! inst2|yfsm.s5~regout $end
$var wire 1 2! inst2|yfsm.s6~feeder_combout $end
$var wire 1 3! inst2|yfsm.s6~regout $end
$var wire 1 4! inst2|yfsm.s7~feeder_combout $end
$var wire 1 5! inst2|yfsm.s7~regout $end
$var wire 1 6! inst2|yfsm.s8~regout $end
$var wire 1 7! inst2|WideOr2~combout $end
$var wire 1 8! inst2|WideOr3~0_combout $end
$var wire 1 9! inst2|WideOr4~0_combout $end
$var wire 1 :! inst1|Add1~1 $end
$var wire 1 ;! inst1|Add1~3 $end
$var wire 1 <! inst1|Add1~4_combout $end
$var wire 1 =! inst1|Add1~2_combout $end
$var wire 1 >! inst1|Add1~0_combout $end
$var wire 1 ?! inst1|Add2~1_cout $end
$var wire 1 @! inst1|Add2~3 $end
$var wire 1 A! inst1|Add2~5 $end
$var wire 1 B! inst1|Add2~6_combout $end
$var wire 1 C! inst1|Add2~4_combout $end
$var wire 1 D! inst1|Add2~2_combout $end
$var wire 1 E! inst1|Add3~1_cout $end
$var wire 1 F! inst1|Add3~3 $end
$var wire 1 G! inst1|Add3~5 $end
$var wire 1 H! inst1|Add3~6_combout $end
$var wire 1 I! inst1|result~1_combout $end
$var wire 1 J! inst1|Selector8~0_combout $end
$var wire 1 K! inst2|WideOr1~0_combout $end
$var wire 1 L! inst1|Selector8~3_combout $end
$var wire 1 M! inst1|Selector8~2_combout $end
$var wire 1 N! inst1|Selector8~8_combout $end
$var wire 1 O! inst1|Selector8~9_combout $end
$var wire 1 P! inst1|Add1~5 $end
$var wire 1 Q! inst1|Add1~7 $end
$var wire 1 R! inst1|Add1~9 $end
$var wire 1 S! inst1|Add1~11 $end
$var wire 1 T! inst1|Add1~13 $end
$var wire 1 U! inst1|Add1~14_combout $end
$var wire 1 V! inst1|Add1~15 $end
$var wire 1 W! inst1|Add1~16_combout $end
$var wire 1 X! inst1|Add1~6_combout $end
$var wire 1 Y! inst1|Add1~8_combout $end
$var wire 1 Z! inst1|LessThan1~0_combout $end
$var wire 1 [! inst1|LessThan1~1_combout $end
$var wire 1 \! inst1|Selector8~1_combout $end
$var wire 1 ]! inst1|Selector8~10_combout $end
$var wire 1 ^! inst1|Selector8~11_combout $end
$var wire 1 _! inst1|Selector8~12_combout $end
$var wire 1 `! inst1|Add3~2_combout $end
$var wire 1 a! inst1|result~0_combout $end
$var wire 1 b! inst1|Selector10~3_combout $end
$var wire 1 c! inst1|Selector10~4_combout $end
$var wire 1 d! inst1|Selector10~5_combout $end
$var wire 1 e! inst1|Selector10~6_combout $end
$var wire 1 f! inst1|Selector9~5_combout $end
$var wire 1 g! inst1|Selector9~6_combout $end
$var wire 1 h! inst1|Add4~0_combout $end
$var wire 1 i! inst1|Selector9~7_combout $end
$var wire 1 j! inst1|Add3~4_combout $end
$var wire 1 k! inst1|Selector9~8_combout $end
$var wire 1 l! inst1|Selector9~9_combout $end
$var wire 1 m! inst1|LessThan0~1_cout $end
$var wire 1 n! inst1|LessThan0~3_cout $end
$var wire 1 o! inst1|LessThan0~5_cout $end
$var wire 1 p! inst1|LessThan0~7_cout $end
$var wire 1 q! inst1|LessThan0~9_cout $end
$var wire 1 r! inst1|LessThan0~11_cout $end
$var wire 1 s! inst1|LessThan0~13_cout $end
$var wire 1 t! inst1|LessThan0~14_combout $end
$var wire 1 u! inst1|Selector11~0_combout $end
$var wire 1 v! inst1|Selector11~1_combout $end
$var wire 1 w! inst1|Selector11~6_combout $end
$var wire 1 x! inst1|Selector11~7_combout $end
$var wire 1 y! inst1|Selector11~5_combout $end
$var wire 1 z! inst4|Mux14~0_combout $end
$var wire 1 {! inst4|Mux15~0_combout $end
$var wire 1 |! inst4|Mux16~0_combout $end
$var wire 1 }! inst4|Mux17~0_combout $end
$var wire 1 ~! inst4|Mux18~0_combout $end
$var wire 1 !" inst4|Mux19~0_combout $end
$var wire 1 "" inst4|Mux20~0_combout $end
$var wire 1 #" inst1|Add4~1 $end
$var wire 1 $" inst1|Add4~3 $end
$var wire 1 %" inst1|Add4~5 $end
$var wire 1 &" inst1|Add4~7 $end
$var wire 1 '" inst1|Add4~8_combout $end
$var wire 1 (" inst1|Selector5~0_combout $end
$var wire 1 )" inst1|Selector4~0_combout $end
$var wire 1 *" inst1|Add1~12_combout $end
$var wire 1 +" inst1|Add1~10_combout $end
$var wire 1 ," inst1|Add2~7 $end
$var wire 1 -" inst1|Add2~9 $end
$var wire 1 ." inst1|Add2~11 $end
$var wire 1 /" inst1|Add2~12_combout $end
$var wire 1 0" inst1|Add2~8_combout $end
$var wire 1 1" inst1|Add3~7 $end
$var wire 1 2" inst1|Add3~9 $end
$var wire 1 3" inst1|Add3~11 $end
$var wire 1 4" inst1|Add3~12_combout $end
$var wire 1 5" inst1|Selector5~1_combout $end
$var wire 1 6" inst|Mux0~0_combout $end
$var wire 1 7" inst1|Selector5~5_combout $end
$var wire 1 8" inst1|Selector6~9_combout $end
$var wire 1 9" inst1|Selector6~10_combout $end
$var wire 1 :" inst1|Add0~1 $end
$var wire 1 ;" inst1|Add0~3 $end
$var wire 1 <" inst1|Add0~5 $end
$var wire 1 =" inst1|Add0~6_combout $end
$var wire 1 >" inst1|Selector6~17_combout $end
$var wire 1 ?" inst1|Selector7~1_combout $end
$var wire 1 @" inst1|Selector7~2_combout $end
$var wire 1 A" inst1|result~2_combout $end
$var wire 1 B" inst1|Selector7~3_combout $end
$var wire 1 C" inst1|Selector7~4_combout $end
$var wire 1 D" inst1|Selector7~5_combout $end
$var wire 1 E" inst1|Selector6~12_combout $end
$var wire 1 F" inst1|Selector6~13_combout $end
$var wire 1 G" inst1|result~3_combout $end
$var wire 1 H" inst1|Selector6~14_combout $end
$var wire 1 I" inst1|Selector6~15_combout $end
$var wire 1 J" inst1|Add3~10_combout $end
$var wire 1 K" inst1|Selector6~11_combout $end
$var wire 1 L" inst1|Selector6~16_combout $end
$var wire 1 M" inst1|Selector4~3_combout $end
$var wire 1 N" inst1|Selector4~6_combout $end
$var wire 1 O" inst1|Selector4~7_combout $end
$var wire 1 P" inst1|Add0~7 $end
$var wire 1 Q" inst1|Add0~9 $end
$var wire 1 R" inst1|Add0~11 $end
$var wire 1 S" inst1|Add0~12_combout $end
$var wire 1 T" inst1|Selector4~1_combout $end
$var wire 1 U" inst1|Selector4~8_combout $end
$var wire 1 V" inst1|Selector4~9_combout $end
$var wire 1 W" inst4|Mux7~0_combout $end
$var wire 1 X" inst4|Mux8~0_combout $end
$var wire 1 Y" inst4|Mux9~0_combout $end
$var wire 1 Z" inst4|Mux10~0_combout $end
$var wire 1 [" inst4|Mux11~0_combout $end
$var wire 1 \" inst4|Mux12~0_combout $end
$var wire 1 ]" inst4|Mux13~0_combout $end
$var wire 1 ^" inst1|Add2~13 $end
$var wire 1 _" inst1|Add2~15 $end
$var wire 1 `" inst1|Add2~16_combout $end
$var wire 1 a" inst1|Add2~14_combout $end
$var wire 1 b" inst1|Add3~13 $end
$var wire 1 c" inst1|Add3~15 $end
$var wire 1 d" inst1|Add3~16_combout $end
$var wire 1 e" inst1|Add4~9 $end
$var wire 1 f" inst1|Add4~11 $end
$var wire 1 g" inst1|Add4~12_combout $end
$var wire 1 h" inst|Mux0~1_combout $end
$var wire 1 i" inst4|Mux0~0_combout $end
$var wire 1 j" inst1|WideOr1~0_combout $end
$var wire 1 k" inst1|Add4~13 $end
$var wire 1 l" inst1|Add4~14_combout $end
$var wire 1 m" inst1|Selector2~0_combout $end
$var wire 1 n" inst4|Mux0~1_combout $end
$var wire 1 o" inst4|Mux0~2_combout $end
$var wire 1 p" inst4|Mux0~3_combout $end
$var wire 1 q" inst4|Mux5~0_combout $end
$var wire 1 r" inst1|Selector2~1_combout $end
$var wire 1 s" inst1|Selector1~0_combout $end
$var wire 1 t" inst7|Mux0~0_combout $end
$var wire 1 u" inst2|WideOr1~combout $end
$var wire 1 v" inst7|Mux0~1_combout $end
$var wire 1 w" inst7|Mux3~0_combout $end
$var wire 1 x" inst7|Mux5~0_combout $end
$var wire 1 y" inst7|Mux6~0_combout $end
$var wire 1 z" inst3|Q [7] $end
$var wire 1 {" inst3|Q [6] $end
$var wire 1 |" inst3|Q [5] $end
$var wire 1 }" inst3|Q [4] $end
$var wire 1 ~" inst3|Q [3] $end
$var wire 1 !# inst3|Q [2] $end
$var wire 1 "# inst3|Q [1] $end
$var wire 1 ## inst3|Q [0] $end
$var wire 1 $# B~combout [7] $end
$var wire 1 %# B~combout [6] $end
$var wire 1 &# B~combout [5] $end
$var wire 1 '# B~combout [4] $end
$var wire 1 (# B~combout [3] $end
$var wire 1 )# B~combout [2] $end
$var wire 1 *# B~combout [1] $end
$var wire 1 +# B~combout [0] $end
$var wire 1 ,# A~combout [7] $end
$var wire 1 -# A~combout [6] $end
$var wire 1 .# A~combout [5] $end
$var wire 1 /# A~combout [4] $end
$var wire 1 0# A~combout [3] $end
$var wire 1 1# A~combout [2] $end
$var wire 1 2# A~combout [1] $end
$var wire 1 3# A~combout [0] $end
$var wire 1 4# inst6|Q [7] $end
$var wire 1 5# inst6|Q [6] $end
$var wire 1 6# inst6|Q [5] $end
$var wire 1 7# inst6|Q [4] $end
$var wire 1 8# inst6|Q [3] $end
$var wire 1 9# inst6|Q [2] $end
$var wire 1 :# inst6|Q [1] $end
$var wire 1 ;# inst6|Q [0] $end
$upscope $end
$upscope $end
$enddefinitions $end
#0
$dumpvars
b1110001 !
b100010 "
0#
1$
1%
0)
0(
0'
0&
00
1/
0.
0-
1,
0+
0*
17
06
05
04
03
02
01
1>
0=
0<
0;
0:
09
08
1E
1D
1C
1B
1A
1@
1?
0L
0K
1J
0I
0H
1G
0F
1S
1R
1Q
1P
1O
1N
1M
xT
0U
1V
xW
1X
1Y
1Z
1[
0\
1]
0^
1_
1`
1a
0b
0c
0d
1e
1f
1g
1h
0i
1j
0k
0l
0m
1n
0o
0p
1q
1r
0s
0t
0u
0v
0w
0x
0y
0z
0{
1|
0}
0~
0!!
0"!
0#!
1$!
1%!
0&!
0'!
1(!
1)!
0*!
1+!
0,!
0-!
0.!
0/!
00!
01!
02!
03!
04!
05!
06!
07!
08!
09!
0:!
1;!
0<!
0=!
0>!
1?!
0@!
1A!
0B!
1C!
0D!
1E!
0F!
0G!
1H!
0I!
1J!
1K!
0L!
0M!
0N!
0O!
0P!
1Q!
0R!
1S!
0T!
0U!
1V!
0W!
0X!
0Y!
0Z!
0[!
0\!
0]!
0^!
0_!
0`!
0a!
1b!
1c!
1d!
1e!
0f!
0g!
1h!
0i!
1j!
0k!
0l!
0m!
1n!
0o!
1p!
0q!
1r!
0s!
0t!
0u!
0v!
0w!
0x!
0y!
0z!
0{!
1|!
0}!
0~!
1!"
1""
0#"
1$"
0%"
1&"
1'"
0("
0)"
0*"
0+"
0,"
1-"
0."
0/"
00"
11"
02"
13"
14"
05"
06"
07"
08"
19"
0:"
1;"
0<"
0="
0>"
0?"
0@"
0A"
0B"
0C"
0D"
0E"
0F"
0G"
0H"
0I"
1J"
0K"
0L"
0M"
0N"
1O"
1P"
0Q"
1R"
0S"
0T"
0U"
0V"
0W"
0X"
0Y"
0Z"
0["
0\"
0]"
1^"
0_"
0`"
0a"
0b"
1c"
1d"
0e"
1f"
1g"
0h"
0i"
0j"
0k"
1l"
0m"
1n"
1o"
1p"
0q"
1r"
0s"
0t"
0u"
0v"
0w"
0x"
0y"
0##
0"#
0!#
0~"
0}"
0|"
0{"
0z"
0+#
1*#
0)#
0(#
0'#
1&#
0%#
0$#
13#
02#
01#
00#
1/#
1.#
1-#
0,#
0;#
0:#
09#
08#
07#
06#
05#
04#
$end
#10000
1#
0$
1#!
0$!
0%!
0T
1&!
1'!
1,!
1*!
1u"
1>"
0K!
19!
1w"
1t"
0+!
0G
0w"
1L!
1T"
1M"
1z
1y"
1)
1I
0J
0r
1U"
1}
0O"
0|
0I
1L
0b!
1V"
17"
0U"
0}
0c!
1Y"
1X"
0V"
07"
0d!
0Y"
0X"
13
12
0e!
03
02
0""
0!"
0|!
0/
0,
10
#20000
0#
1$
0#!
1$!
1%!
1T
0&!
0'!
1{"
1|"
1##
1}"
16#
1:#
1*"
1d
0S!
1c
1>!
1A"
1="
1Y!
1N!
0n!
1a!
1=!
0^"
1/"
1e"
0'"
1[!
1T!
0*"
1w!
0E!
0?!
0-"
10"
1Z!
1%"
0_
1O!
1o!
1@!
1D!
1_"
1a"
04"
0f"
0e
1U!
1^"
0/"
0e"
1'"
1F!
0D!
1."
1b
0`
0&"
0a
1]!
0p!
0C!
0g
1`"
0f
1k"
0g"
14"
1`!
0^"
1/"
0J"
1e"
0'"
1^!
0h
0d"
0l"
0a"
04"
1e
1_!
0j
1f
1""
00
#30000
1#
0$
1#!
0$!
0%!
0T
1&!
1'!
1-!
0,!
0>"
0J!
18!
1o
1K!
09!
1k
1E"
09"
1v!
0L!
1j"
0M"
0z
1v
1s
1p
1l
1(
0)
1F"
1y!
0N!
1r
0r"
1q"
0p"
1O"
1|
1t
1m
1~!
1}!
0O!
1b!
1U"
1}
1g!
1x!
0>
1=
1<
0]!
1c!
1V"
17"
1i!
1.
1-
0^!
1d!
1Y"
1X"
1k!
0_!
1e!
1l!
13
12
0""
1!"
1/
10
#40000
0#
1$
0#!
1$!
1%!
1T
0&!
0'!
#50000
1#
0$
1#!
0$!
0%!
0T
1&!
1'!
1.!
0-!
0t"
0K!
19!
1/!
0o
0n
0k
0y"
19"
0v!
0j"
1M"
16"
1z
0v
0s
1w
0l
1)
1I"
0y!
1r"
0q"
1p"
0O"
0|
0V"
07"
0w
0t
1N!
0m
0L
1L"
1""
0!"
0~!
0}!
1{!
0U"
0}
0Y"
0X"
0N!
0g!
1O!
0x!
1>
0=
0<
1]"
1\"
1Y"
0O!
0i!
1]!
0/
0.
0-
1+
03
02
00
0]!
0k!
1^!
16
13
07
0^!
0l!
1_!
0_!
1}!
0{!
1!"
0}!
1|!
1-
0+
1/
0-
1,
#60000
0#
1$
0#!
1$!
1%!
1T
0&!
0'!
#70000
1#
0$
1#!
0$!
0%!
0T
1&!
1'!
10!
0.!
0w!
1M!
17!
1"!
1y
0u"
1t"
1K!
1J!
09!
08!
0/!
1n
1k
1f!
1O!
0r
1~
1{
0z
1H"
1B"
1x"
1?"
0T"
06"
0p
1'
0)
0(
1J
1g!
1]!
0b!
1!!
0I"
1C"
1@"
1}
1K
1i!
1^!
0c!
0L"
1D"
17"
1k!
1_!
0d!
0\"
1["
0Y"
1X"
1l!
0!"
1}!
0|!
0e!
06
15
03
12
0""
0}!
1|!
1{!
0/
1-
0,
0-
1,
1+
10
#80000
0#
1$
0#!
1$!
1%!
1T
0&!
0'!
#90000
1#
0$
1#!
0$!
0%!
0T
1&!
1'!
11!
00!
18"
1\!
19!
12!
1y"
1w"
1v"
0M!
0"!
0H"
0B"
09"
0i!
0]!
1T"
1z
0f!
0O!
1r
1)
1L
1I
1F
0C"
0^!
0}
1|
0g!
1b!
0D"
0_!
07"
1}
0]"
0["
0X"
1""
1~!
1}!
0|!
0{!
1z!
17"
1]"
1["
1Z"
1W"
05
02
1.
1-
0,
0+
1*
17
00
15
14
11
07
#100000
0#
1$
0#!
1$!
1%!
1T
0&!
0'!
#110000
1#
0$
1#!
0$!
0%!
0T
1&!
1'!
13!
01!
1M!
1L!
18!
14!
1"!
0y
1w!
0\!
09!
02!
1l
1O!
1N!
0M"
1B"
1x!
0k!
1c!
1m
1(
0)
1]!
0O!
0|
0{
1C"
1y!
0l!
1d!
1^!
0]!
0}
1|
1D"
0""
1!"
1e!
1_!
0^!
07"
1}
0Z"
1X"
0W"
1""
0}!
0z!
1/
10
0!"
0~!
1{!
1z!
0_!
0]"
1\"
1Z"
0X"
1W"
17"
04
12
01
0-
0*
00
1!"
1~!
0{!
0z!
1]"
0\"
0Z"
1X"
0W"
0/
0.
1+
1*
16
14
02
11
17
1/
1.
0+
0*
06
04
12
01
07
#120000
0#
1$
0#!
1$!
1%!
1T
0&!
0'!
#130000
1#
0$
1#!
0$!
0%!
0T
1&!
1'!
15!
03!
1u"
0t"
0D"
1i!
1]!
19!
08"
0M!
0L!
04!
0"!
0x"
0w"
0v"
0y"
1Z"
0X"
1W"
1k!
1^!
1h"
1M"
16"
0B"
19"
1O!
0N!
1)
0J
1l!
1_!
0|
1{
1V"
07"
1I"
0O!
0K
0I
0F
0L
14
02
11
0!"
0~!
1}!
1|!
1{!
0}
1|
0["
0Z"
0W"
1}
0/
0.
1-
1,
1+
05
04
01
#140000
0#
1$
0#!
1$!
1%!
1T
0&!
0'!
#150000
1#
0$
1#!
0$!
0%!
0T
1&!
1'!
16!
05!
0h"
1L"
1D"
17"
0(!
0u"
0i!
0]!
09!
08!
07!
1&
1Z"
1Y"
1X"
1w"
0k!
0^!
1j"
0T"
0M"
06"
0z
0~
0{
0)
0(
0'
1J
0r"
1q"
0p"
1O"
0!!
14
13
12
1I
0>
1=
1<
#160000
0#
1$
0#!
1$!
1%!
1T
0&!
0'!
#170000
1#
0$
1#!
0$!
0%!
0T
1&!
1'!
06!
0*!
0j"
0V"
0l!
0_!
1(!
0w"
1+!
0&
1G
1r"
0q"
1p"
0]"
1\"
1["
0Y"
0X"
1!"
1~!
0}!
0|!
0{!
0I
1>
0=
16
15
03
02
1/
1.
0-
0,
0+
0<
17
#180000
0#
1$
0#!
1$!
1%!
1T
0&!
0'!
#190000
0%
1#
0$
0)!
1#!
0$!
0%!
0T
1&!
1'!
0:#
06#
0}"
0##
0|"
0{"
1n!
0a!
0=!
1S!
0A"
0="
1q!
0Y!
0>!
0k
0c
0T!
1*"
0d
0o!
1D!
0*"
0?"
0r!
1-"
00"
0Z!
0%"
1_
0w!
1E!
1?!
0l
0E"
0U!
0/"
1'"
0}
1p!
1/"
0'"
0[!
0@"
1s!
0."
0b
1`
1&"
1a
0@!
0D!
0m
0F"
1a"
0e
14"
07"
0q!
04"
0C"
1t!
1^"
0/"
1J"
0e"
1'"
1C!
0F!
0`!
0x!
0I"
0f
1]"
0Z"
1r!
0D"
1)"
0_"
0a"
14"
1f"
1e
0y!
0L"
04
07
0s!
0]"
0\"
0["
1g
0`"
1f
0k"
1g"
0~!
1|!
0t!
1h
1d"
1l"
06
05
0.
1,
17
0)"
1j
